<svg xmlns="http://www.w3.org/2000/svg" xmlns:xlink="http://www.w3.org/1999/xlink" width="109.297" height="98" viewBox="0 0 109.297 98">
  <defs>
    <linearGradient id="linear-gradient" x1="0.5" x2="0.5" y2="1" gradientUnits="objectBoundingBox">
      <stop offset="0.05" stop-color="#36b34a"/>
      <stop offset="0.95" stop-color="#25a9e0"/>
    </linearGradient>
  </defs>
  <path id="제외_6" data-name="제외 6" d="M-9880.183,98h-42.635a12.031,12.031,0,0,1-10.4-6.007l-21.332-37a12.018,12.018,0,0,1-1.6-5.994,12.008,12.008,0,0,1,1.6-5.992l21.332-37A12.026,12.026,0,0,1-9922.817,0h42.635a12.014,12.014,0,0,1,6,1.609,12.008,12.008,0,0,1,4.392,4.4l21.332,37a12.005,12.005,0,0,1,1.6,5.992,12.015,12.015,0,0,1-1.6,5.994l-21.332,37A12.031,12.031,0,0,1-9880.183,98Zm-31.123-28.856h19.684v5.337h6.316V69.144h3.928V23.519h-40.245V69.144h4v5.337h6.314V69.145Zm27.609-2.314H-9919.3V52.8h35.608v14.03Zm-8.926-8.311v6.627h6.242V58.519Zm-15,0v6.627h12.242V58.519Zm-9,0v6.627h6.241V58.519Zm27.924,4.31h-1.609V60.836h1.609v1.993Zm-9,0h-7.609V60.836h7.609v1.993Zm-15,0h-1.608V60.836h1.608v1.993Zm29-12.349H-9919.3V33.8h35.608V50.48Zm0-19H-9919.3V25.835h35.608v5.646Zm-21.425-4V29.8h7.334V27.482Z" transform="translate(9956.148)" opacity="0.8" fill="url(#linear-gradient)"/>
</svg>
