<svg xmlns="http://www.w3.org/2000/svg" width="100.5" height="148" viewBox="0 0 100.5 148">
    <defs>
        <linearGradient id="a" x1=".5" x2=".5" y2="1" gradientUnits="objectBoundingBox">
            <stop offset=".05" stop-color="#36b34a"/>
            <stop offset=".95" stop-color="#25a9e0"/>
        </linearGradient>
    </defs>
    <path data-name="합치기 24" d="M-4054-2880v-148h100.5v148zm3.212-3.208h94.077v-141.583h-94.077zm66.168-8.44v-14.133h16.169v14.133zm-53.9-5.462v-3.209h48.2v3.209zm-1.451-53.16a36.245 36.245 0 0 1 36.219-36.187 36.243 36.243 0 0 1 36.215 36.188 36.243 36.243 0 0 1-36.215 36.188 36.245 36.245 0 0 1-36.215-36.19zm3.149 0a33.092 33.092 0 0 0 33.069 33.041 33.09 33.09 0 0 0 33.066-33.041 33.089 33.089 0 0 0-33.066-33.04 33.092 33.092 0 0 0-33.064 33.039zm28.806 16.844-9.449-9.439a1.571 1.571 0 0 1 0-2.223 1.578 1.578 0 0 1 2.229 0l8.022 8.015 17.857-29.74a1.578 1.578 0 0 1 2.163-.538 1.573 1.573 0 0 1 .54 2.157l-18.9 31.467a1.573 1.573 0 0 1-1.156.752 1.816 1.816 0 0 1-.194.01 1.565 1.565 0 0 1-1.107-.462zm-36.505-61.632v-3.209h78.061v3.209zm44.322-11.6v-3.209h33.74v3.209z" transform="translate(4054 3028)" style="opacity:.8;fill:url(#a)"/>
</svg>
