<svg xmlns="http://www.w3.org/2000/svg" width="16" height="16" viewBox="0 0 16 16">
    <g data-name="그룹 3983">
        <path data-name="패스 7225" d="m6736.012 3561.7 3.522 3.973 6.164-8.475" transform="translate(-6732.512 -3554.176)" style="stroke:#333;stroke-linejoin:round;stroke-width:2px;fill:none"/>
        <path data-name="사각형 1179" style="fill:none" d="M0 0h16v16H0z"/>
    </g>
</svg>
