<svg xmlns="http://www.w3.org/2000/svg" width="24" height="24" viewBox="0 0 24 24">
    <g data-name="그룹 4000">
        <g data-name="그룹 3282">
            <path data-name="합치기 30" d="M.22 17.191a.75.75 0 0 1 0-1.061l7.424-7.425L.22 1.281A.75.75 0 0 1 1.281.22l7.424 7.424L16.129.221a.75.75 0 0 1 1.061 1.06L9.766 8.705l7.424 7.425a.75.75 0 0 1-1.06 1.06L8.705 9.766 1.28 17.191a.75.75 0 0 1-1.06 0z" style="fill:#333" transform="translate(3.3 3.3)"/>
        </g>
        <path data-name="사각형 1226" style="fill:none" d="M0 0h24v24H0z"/>
    </g>
</svg>
