<svg xmlns="http://www.w3.org/2000/svg" width="64.469" height="60" viewBox="0 0 64.469 60">
    <defs>
        <linearGradient id="a" x1=".5" x2=".5" y2="1" gradientUnits="objectBoundingBox">
            <stop offset=".05" stop-color="#36b34a"/>
            <stop offset=".95" stop-color="#25a9e0"/>
        </linearGradient>
    </defs>
    <g data-name="그룹 3961">
        <g data-name="그룹 3951">
            <path data-name="합치기 8" d="M-7038.683-539.685a1.163 1.163 0 0 1-1.012-.594 1.158 1.158 0 0 1 .027-1.173l4.149-6.735h-24.744v-44.583h63.469v44.583h-24.747l4.152 6.735a1.163 1.163 0 0 1 .025 1.173 1.164 1.164 0 0 1-1.012.594zm5.862-8.463-3.787 6.147h16.16l-3.789-6.147a.307.307 0 0 1-.021-.039h-8.542l-.021.04zm-25.124-3.264a.91.91 0 0 0 .909.909h57.016a.909.909 0 0 0 .909-.909v-3.705h-58.834zm0-6.021h58.834v-33.021h-58.834zm36.2-11.512v-8.317a.671.671 0 0 1 .131-.445.623.623 0 0 1 .489-.186h.843a.648.648 0 0 1 .458.159.843.843 0 0 1 .195.278l2.886 4.954v-5.392h1.887v8.294a.635.635 0 0 1-.158.473.619.619 0 0 1-.462.159h-.875a.687.687 0 0 1-.46-.147.686.686 0 0 1-.2-.307l-2.846-4.933v5.408zm-2.989 0v-8.982h1.889v8.982zm-6.689 0v-8.317a.643.643 0 0 1 .149-.457.62.62 0 0 1 .482-.174h2.42a4.009 4.009 0 0 1 1.182.174 3.012 3.012 0 0 1 1.01.524 2.537 2.537 0 0 1 .7.881 2.756 2.756 0 0 1 .259 1.221 2.76 2.76 0 0 1-.26 1.228 2.63 2.63 0 0 1-.684.87 2.815 2.815 0 0 1-.975.517 3.917 3.917 0 0 1-1.122.161h-1.272v3.372zm1.876-5.084h1.065a1.807 1.807 0 0 0 1.042-.25.934.934 0 0 0 .3-.815.967.967 0 0 0-.305-.828 1.728 1.728 0 0 0-1.035-.26h-1.065zm-11.193 5.084v-8.982h1.887v8.982zm2.661-3.677v-1.724h5.982v1.724z" transform="translate(7060.763 594.536)" style="stroke:transparent;stroke-miterlimit:10;fill:url(#a)"/>
        </g>
        <path data-name="사각형 1108" transform="translate(.239)" style="fill:none" d="M0 0h64v60H0z"/>
    </g>
</svg>
