<svg xmlns="http://www.w3.org/2000/svg" width="109.297" height="98" viewBox="0 0 109.297 98">
    <defs>
        <linearGradient id="v45u1fk3ba" x1=".5" x2=".5" y2="1" gradientUnits="objectBoundingBox">
            <stop offset=".05" stop-color="#36b34a"/>
            <stop offset=".95" stop-color="#25a9e0"/>
        </linearGradient>
    </defs>
    <path data-name="제외 13" d="M-9880.183 98h-42.635a12.031 12.031 0 0 1-10.4-6.007l-21.332-37a12.018 12.018 0 0 1-1.6-5.994 12.008 12.008 0 0 1 1.6-5.992l21.332-37A12.026 12.026 0 0 1-9922.817 0h42.635a12.014 12.014 0 0 1 6 1.609 12.008 12.008 0 0 1 4.392 4.4l21.332 37a12.005 12.005 0 0 1 1.6 5.992 12.015 12.015 0 0 1-1.6 5.994l-21.332 37A12.031 12.031 0 0 1-9880.183 98zm-3.966-43.756a11.922 11.922 0 0 0-8.483 3.513 11.922 11.922 0 0 0-3.516 8.486 11.922 11.922 0 0 0 3.516 8.486 11.929 11.929 0 0 0 8.483 3.513 11.926 11.926 0 0 0 8.485-3.513 11.924 11.924 0 0 0 3.517-8.486 11.924 11.924 0 0 0-3.517-8.486 11.92 11.92 0 0 0-8.484-3.513zM-9919.347 44v34.242h27.037a14.579 14.579 0 0 1-2.789-2.314h-21.93V46.315h30.993v5.262a15.018 15.018 0 0 1 2.314-.055V44zm17.8-28a12.925 12.925 0 0 0-9.193 3.806 12.925 12.925 0 0 0-3.806 9.2 12.931 12.931 0 0 0 3.806 9.193 12.915 12.915 0 0 0 9.195 3.801 12.9 12.9 0 0 0 9.19-3.806 12.928 12.928 0 0 0 3.811-9.194 12.923 12.923 0 0 0-3.811-9.2 12.914 12.914 0 0 0-9.19-3.8zm17.4 59.741a9.509 9.509 0 0 1-9.5-9.5 9.51 9.51 0 0 1 9.5-9.5 9.511 9.511 0 0 1 9.5 9.5 9.51 9.51 0 0 1-9.501 9.5zm-6.165-10.657V67.4h5.008v5.01h2.316V67.4h5.008v-2.316h-5.008v-5.008h-2.316v5.008zm-11.233-25.584a10.511 10.511 0 0 1-10.5-10.5 10.512 10.512 0 0 1 10.5-10.5 10.513 10.513 0 0 1 10.5 10.5 10.512 10.512 0 0 1-10.5 10.5z" transform="translate(9956.148)" style="opacity:.8;fill:url(#v45u1fk3ba)"/>
</svg>
