<svg xmlns="http://www.w3.org/2000/svg" width="68.251" height="90" viewBox="0 0 68.251 90">
    <defs>
        <linearGradient id="9j73jv5t4a" x1=".5" x2=".5" y2="1" gradientUnits="objectBoundingBox">
            <stop offset=".05" stop-color="#36b34a"/>
            <stop offset=".95" stop-color="#25a9e0"/>
        </linearGradient>
    </defs>
    <path data-name="합치기 22" d="M38.629 84.921A17.359 17.359 0 1 1 50.9 90a17.24 17.24 0 0 1-12.271-5.079zm-1.466-12.27A13.735 13.735 0 1 0 50.9 58.912a13.752 13.752 0 0 0-13.737 13.739zM39.1 90H0V40.488h51.521v10.876a21.857 21.857 0 0 0-3.352.08v-7.606H3.354v42.816h31.709A21.113 21.113 0 0 0 39.1 90h.008zm10.126-8.433v-7.241h-7.244v-3.35h7.241v-7.241h3.35v7.241h7.241v3.35h-7.241v7.241zM12.45 32.091a18.8 18.8 0 1 1 13.291 5.5 18.686 18.686 0 0 1-13.291-5.5zM10.563 18.8A15.181 15.181 0 1 0 25.741 3.613 15.2 15.2 0 0 0 10.563 18.8z" style="opacity:.8;fill:url(#9j73jv5t4a)"/>
</svg>
