<svg xmlns="http://www.w3.org/2000/svg" width="14" height="14" viewBox="0 0 14 14">
    <g data-name="그룹 4042">
        <path data-name="합치기 27" d="m-1990-11744.292.025-.025-.025-.025 5.659-5.658.7.707-4.974 4.977 4.974 4.974-.7.707z" transform="translate(1990.82 11751.301)" style="fill:#333"/>
        <path data-name="합치기 28" d="m-1990-11744.292.025-.025-.025-.025 5.659-5.658.7.707-4.974 4.977 4.974 4.974-.7.707z" transform="translate(1994.82 11751.301)" style="fill:#333"/>
        <path data-name="사각형 1259" style="fill:none" d="M0 0h14v14H0z"/>
    </g>
</svg>
