<svg xmlns="http://www.w3.org/2000/svg" width="64" height="61.243" viewBox="0 0 64 61.243">
    <defs>
        <linearGradient id="a" x1=".5" x2=".5" y2="1" gradientUnits="objectBoundingBox">
            <stop offset=".05" stop-color="#36b34a"/>
            <stop offset=".95" stop-color="#25a9e0"/>
        </linearGradient>
    </defs>
    <g data-name="그룹 3960">
        <path data-name="합치기 5" d="M0 60.243V0h35.627v60.243zm2.316-2.316h31v-7.26h-31zm31-9.576V10.765h-31V48.35zm0-39.9V2.316h-31v6.132zm-18.86 46.682v-2.316h7.333v2.316z" transform="translate(14 .5)" style="stroke:transparent;stroke-miterlimit:10;fill:url(#a)"/>
        <path data-name="사각형 1109" transform="translate(0 .743)" style="fill:none" d="M0 0h64v60H0z"/>
    </g>
</svg>
