<svg xmlns="http://www.w3.org/2000/svg" width="109.297" height="98" viewBox="0 0 109.297 98">
    <defs>
        <linearGradient id="a" x1=".5" x2=".5" y2="1" gradientUnits="objectBoundingBox">
            <stop offset=".05" stop-color="#36b34a"/>
            <stop offset=".95" stop-color="#25a9e0"/>
        </linearGradient>
    </defs>
    <path data-name="제외 5" d="M-9880.183 98h-42.635a12.031 12.031 0 0 1-10.4-6.007l-21.332-37a12.018 12.018 0 0 1-1.6-5.994 12.008 12.008 0 0 1 1.6-5.992l21.332-37A12.026 12.026 0 0 1-9922.817 0h42.635a12.014 12.014 0 0 1 6 1.609 12.008 12.008 0 0 1 4.392 4.4l21.332 37a12.005 12.005 0 0 1 1.6 5.992 12.015 12.015 0 0 1-1.6 5.994l-21.332 37A12.031 12.031 0 0 1-9880.183 98zm-26.917-48.571v25.627h40.243V49.429zM-9936.144 22v40.243h25.628V22zm28.312 17.392v2.318h4.5v4.5h2.316v-4.5h4.5v-2.319h-4.5v-4.5h-2.316v4.5zm38.661 33.349h-35.61V51.745h35.61v20.994zm-9.66-8.853v5.332h6.314v-5.333zm1-7.494v2.314h5.315v-2.315zm-8 0v2.314h5.317v-2.315zm-8 0v2.314h5.317v-2.315zm-8 0v2.314h5.314v-2.315zm-11 3.533h-21v-5.34h21v5.339zm-13.158-3.653v2.314h5.317v-2.315zm13.158-4h-21V29.588h21v22.681zm0-25h-21v-2.958h21v2.953z" transform="translate(9956.148)" style="opacity:.8;fill:url(#a)"/>
</svg>
