<svg xmlns="http://www.w3.org/2000/svg" width="58.192" height="64.493" viewBox="0 0 58.192 64.493">
    <defs>
        <linearGradient id="zb6hxvajta" x1=".5" x2=".5" y2="1" gradientUnits="objectBoundingBox">
            <stop offset=".05" stop-color="#36b34a"/>
            <stop offset=".95" stop-color="#25a9e0"/>
        </linearGradient>
    </defs>
    <path data-name="합치기 17" d="M0 64.493V27.439h58.193v37.054zm3.351-3.35h51.49V30.785H3.352zm37.525-5.092V48.34h9.13v7.712zm1.444-15.2v-3.35h7.686v3.35zm-11.568 0v-3.35h7.688v3.35zm-11.566 0v-3.35h7.687v3.35zm-11.567 0v-3.35H15.3v3.35zm38.753-18.07v-6.5h-6.508v-3.35h6.508V6.418h3.35v6.508h6.508v3.35h-6.508v6.5zm-29.058 0H0V6.472h16.28V0h19.706v22.781zm2.313-3.35h13.01v-3.155h-13.01zm-3.346 0v-3.155H3.352v3.155zm16.355-6.5v-3.1H19.627v3.1zm-16.355 0v-3.1H3.352v3.1zm16.356-6.459V3.35h-13.01v3.122z" transform="translate(-.001)" style="opacity:.8;fill:url(#zb6hxvajta)"/>
</svg>
