<svg xmlns="http://www.w3.org/2000/svg" width="62" height="80" viewBox="0 0 62 80">
    <defs>
        <linearGradient id="q6kd30egda" x1=".5" x2=".5" y2="1" gradientUnits="objectBoundingBox">
            <stop offset=".05" stop-color="#36b34a"/>
            <stop offset=".95" stop-color="#25a9e0"/>
        </linearGradient>
    </defs>
    <g data-name="그룹 3972">
        <path data-name="합치기 19" d="M-1748-2886a4 4 0 0 1-4-4v-72a4 4 0 0 1 4-4h54a4 4 0 0 1 4 4v72a4.005 4.005 0 0 1-4 4zm0-75v70a1 1 0 0 0 1 1h52a1 1 0 0 0 1-1v-70a1 1 0 0 0-1-1h-52a1 1 0 0 0-1 1zm24.97 49.01v-27.152l-10.727 10.727a2 2 0 0 1-2.829 0 2 2 0 0 1 0-2.828l13.984-13.983a2 2 0 0 1 1.571-.764 2 2 0 0 1 1.61.813l13.935 13.935a2 2 0 0 1 0 2.829 2 2 0 0 1-1.414.586 1.993 1.993 0 0 1-1.414-.586l-10.716-10.716v27.14a2 2 0 0 1-2 2 2 2 0 0 1-2-2.001z" transform="translate(1752 2965.999)" style="fill:url(#q6kd30egda)"/>
    </g>
</svg>
