<svg xmlns="http://www.w3.org/2000/svg" width="102.002" height="102" viewBox="0 0 102.002 102">
    <defs>
        <linearGradient id="mhvvgje45a" x1=".5" x2=".5" y2="1" gradientUnits="objectBoundingBox">
            <stop offset=".05" stop-color="#36b34a"/>
            <stop offset=".95" stop-color="#25a9e0"/>
        </linearGradient>
    </defs>
    <g data-name="그룹 5037">
        <path data-name="합치기 61" d="M0 51a51 51 0 1 1 51 51A51.059 51.059 0 0 1 0 51zm7.46 0A43.541 43.541 0 1 0 51 7.46 43.589 43.589 0 0 0 7.46 51zm49.251 28.328H51V67.7h5.81v11.628zm-5.81 0H45.19V67.7H51v11.628zm5.81-22.862H51V22.67h5.81v33.8zm-5.81 0H45.19V22.67H51v33.8z" style="opacity:.9;fill:url(#mhvvgje45a)"/>
    </g>
</svg>
