<svg xmlns="http://www.w3.org/2000/svg" width="70" height="87" viewBox="0 0 70 87">
    <defs>
        <clipPath id="clip-path">
            <path id="사각형_1075" data-name="사각형 1075" class="cls-1" d="M0 0h5.458v16.818H0z"/>
        </clipPath>
        <clipPath id="clip-path-2">
            <path id="사각형_1076" data-name="사각형 1076" class="cls-1" d="M0 0h24.515v37.288H0z"/>
        </clipPath>
        <style>
            .cls-1{fill:none}.cls-2{fill:#fff}.cls-3{fill:#333}.cls-4{fill:#ffd7d1}.cls-5{mix-blend-mode:darken;isolation:isolate}.cls-7{fill:#ffc7c1}.cls-10{fill:#00a060}.cls-11{fill:#7e9cda}
        </style>
    </defs>
    <g id="man" transform="translate(-1083 -766)">
        <g id="그룹_3405" data-name="그룹 3405" transform="translate(1086.773 767.632)">
            <g id="그룹_3368" data-name="그룹 3368" transform="translate(.739 47.314)">
                <path id="패스_5067" data-name="패스 5067" class="cls-2" d="M719.583 407.411v-18.917c0-10.5-5.724-19.007-12.784-19.007H671.39c-7.06 0-12.783 8.51-12.783 19.007v18.917" transform="translate(-658.607 -369.487)"/>
            </g>
            <g id="그룹_3369" data-name="그룹 3369" transform="translate(0 46.576)">
                <path id="패스_5068" data-name="패스 5068" class="cls-3" d="M719.321 407.279a.738.738 0 0 1-.738-.738v-24.533a12.058 12.058 0 0 0-12.046-12.045h-35.408a12.06 12.06 0 0 0-12.046 12.045v24.533a.738.738 0 0 1-1.476 0v-24.533a13.537 13.537 0 0 1 13.523-13.521h35.408a13.537 13.537 0 0 1 13.522 13.521v24.533a.738.738 0 0 1-.739.738z" transform="translate(-657.606 -368.487)"/>
            </g>
            <g id="그룹_3370" data-name="그룹 3370" transform="translate(25.768 35.097)">
                <path id="패스_5069" data-name="패스 5069" class="cls-4" d="m703.432 365.152-5.458 4.6-5.458-4.6v-12.216h10.917z" transform="translate(-692.516 -352.936)"/>
            </g>
            <g id="그룹_3371" data-name="그룹 3371" transform="translate(25.03 34.359)">
                <path id="패스_5070" data-name="패스 5070" class="cls-3" d="M697.712 370.231a.735.735 0 0 1-.475-.173l-5.458-4.6a.74.74 0 0 1-.262-.565v-12.219a.738.738 0 0 1 .738-.738h10.915a.738.738 0 0 1 .738.738v12.217a.739.739 0 0 1-.263.565l-5.458 4.6a.737.737 0 0 1-.475.175zm-4.72-5.683 4.72 3.98 4.72-3.98v-11.136h-9.44zm10.178.343z" transform="translate(-691.516 -351.936)"/>
            </g>
            <g id="그룹_3375" data-name="그룹 3375" class="cls-5" transform="translate(31.226 35.097)">
                <g id="그룹_3374" data-name="그룹 3374">
                    <g id="그룹_3373" data-name="그룹 3373" style="clip-path:url(#clip-path)">
                        <g id="그룹_3372" data-name="그룹 3372">
                            <path id="패스_5071" data-name="패스 5071" class="cls-7" d="M702.5 352.936h2.867v12.217l-5.457 4.6 2.59-4.6z" transform="translate(-699.911 -352.936)"/>
                        </g>
                    </g>
                </g>
            </g>
            <g id="그룹_3376" data-name="그룹 3376" transform="translate(11.688 18.467)">
                <path id="패스_5072" data-name="패스 5072" class="cls-4" d="M681.978 341.234h-4.345a4.191 4.191 0 0 1-4.191-4.191V334.6a4.192 4.192 0 0 1 4.191-4.192h4.345z" transform="translate(-673.441 -330.406)"/>
            </g>
            <g id="그룹_3377" data-name="그룹 3377" transform="translate(10.949 17.729)">
                <path id="패스_5073" data-name="패스 5073" class="cls-3" d="M681.715 341.711h-4.345a4.935 4.935 0 0 1-4.93-4.929v-2.445a4.936 4.936 0 0 1 4.93-4.93h4.345a.738.738 0 0 1 .738.738v10.828a.737.737 0 0 1-.738.738zm-4.345-10.828a3.458 3.458 0 0 0-3.454 3.454v2.445a3.457 3.457 0 0 0 3.454 3.453h3.607v-9.352z" transform="translate(-672.44 -329.406)"/>
            </g>
            <g id="그룹_3378" data-name="그룹 3378" transform="translate(42.222 18.467)">
                <path id="패스_5074" data-name="패스 5074" class="cls-4" d="M714.807 341.234h4.345a4.192 4.192 0 0 0 4.192-4.191V334.6a4.192 4.192 0 0 0-4.192-4.192h-4.345z" transform="translate(-714.807 -330.406)"/>
            </g>
            <g id="그룹_3379" data-name="그룹 3379" transform="translate(41.485 17.729)">
                <path id="패스_5075" data-name="패스 5075" class="cls-3" d="M718.891 341.711h-4.345a.737.737 0 0 1-.738-.738v-10.829a.738.738 0 0 1 .738-.738h4.345a4.936 4.936 0 0 1 4.93 4.93v2.445a4.935 4.935 0 0 1-4.93 4.93zm-3.607-1.476h3.607a3.457 3.457 0 0 0 3.454-3.453v-2.445a3.458 3.458 0 0 0-3.454-3.454h-3.607z" transform="translate(-713.808 -329.406)"/>
            </g>
            <g id="그룹_3380" data-name="그룹 3380" transform="translate(17.106 .739)">
                <path id="패스_5076" data-name="패스 5076" class="cls-4" d="M709.023 320.51v11.161a13.94 13.94 0 0 1-.38 3.271 14.127 14.127 0 0 1-27.482 0 13.831 13.831 0 0 1-.38-3.271V320.4a14.117 14.117 0 0 1 28.208-.737c.023.277.035.565.035.853" transform="translate(-680.78 -306.389)"/>
            </g>
            <g id="그룹_3381" data-name="그룹 3381" transform="translate(16.367 .001)">
                <path id="패스_5077" data-name="패스 5077" class="cls-3" d="M694.638 346.269a14.875 14.875 0 0 1-14.459-11.419 14.636 14.636 0 0 1-.4-3.441v-11.276a14.855 14.855 0 0 1 29.683-.779c.024.278.037.586.037.9v11.161a14.814 14.814 0 0 1-5.236 11.32 14.871 14.871 0 0 1-9.625 3.534zm0-39.4a13.415 13.415 0 0 0-13.383 13.273v11.271a13.12 13.12 0 0 0 .36 3.1 13.383 13.383 0 0 0 26.407-3.1v-11.165c0-.266-.011-.533-.032-.79a13.362 13.362 0 0 0-13.351-12.593z" transform="translate(-679.779 -305.389)"/>
            </g>
            <g id="그룹_3385" data-name="그룹 3385" class="cls-5" transform="translate(20.836 2.85)">
                <g id="그룹_3384" data-name="그룹 3384">
                    <g id="그룹_3383" data-name="그룹 3383" style="clip-path:url(#clip-path-2)">
                        <g id="그룹_3382" data-name="그룹 3382">
                            <path id="패스_5078" data-name="패스 5078" class="cls-7" d="M710.35 321.259v11.166a14.128 14.128 0 0 1-23.272 10.756 12.266 12.266 0 0 1-1.244-1.208 14.128 14.128 0 0 0 21.122-8.758 13.745 13.745 0 0 0 .382-3.278v-11.156c0-.293-.018-.577-.035-.853a14.105 14.105 0 0 0-3.66-8.678 13.775 13.775 0 0 1 2.567 2.025 14.057 14.057 0 0 1 4.1 9.131c.018.275.035.568.035.853" transform="translate(-685.834 -309.25)"/>
                        </g>
                    </g>
                </g>
            </g>
            <g id="그룹_3386" data-name="그룹 3386" transform="translate(26.084 17.628)">
                <path id="패스_5079" data-name="패스 5079" class="cls-4" d="M693.8 330.823c0 .857-.193 1.552-.43 1.552s-.43-.7-.43-1.552.193-1.553.43-1.553.43.7.43 1.553" transform="translate(-692.944 -329.27)"/>
            </g>
            <g id="그룹_3387" data-name="그룹 3387" transform="translate(25.346 16.89)">
                <path id="패스_5080" data-name="패스 5080" class="cls-3" d="M693.112 332.852c-1.016 0-1.168-1.435-1.168-2.29s.151-2.291 1.168-2.291 1.168 1.436 1.168 2.291-.152 2.29-1.168 2.29z" transform="translate(-691.944 -328.27)"/>
            </g>
            <g id="그룹_3388" data-name="그룹 3388" transform="translate(35.503 17.628)">
                <path id="패스_5081" data-name="패스 5081" class="cls-4" d="M706.564 330.823c0 .857-.193 1.552-.43 1.552s-.43-.7-.43-1.552.193-1.553.43-1.553.43.7.43 1.553" transform="translate(-705.704 -329.27)"/>
            </g>
            <g id="그룹_3389" data-name="그룹 3389" transform="translate(34.765 16.89)">
                <path id="패스_5082" data-name="패스 5082" class="cls-3" d="M705.872 332.852c-1.016 0-1.168-1.435-1.168-2.29s.152-2.291 1.168-2.291 1.168 1.436 1.168 2.291-.151 2.29-1.168 2.29z" transform="translate(-704.704 -328.27)"/>
            </g>
            <g id="그룹_3390" data-name="그룹 3390" transform="translate(27.594 27.163)">
                <path id="패스_5083" data-name="패스 5083" class="cls-3" d="M698.618 345.058a4.413 4.413 0 0 1-3.469-1.671.738.738 0 1 1 1.154-.92 2.958 2.958 0 0 0 4.628 0 .738.738 0 0 1 1.154.92 4.41 4.41 0 0 1-3.467 1.671z" transform="translate(-694.989 -342.188)"/>
            </g>
            <g id="그룹_3391" data-name="그룹 3391" transform="translate(17.106 .738)">
                <path id="패스_5084" data-name="패스 5084" d="M708.988 319.657a19.384 19.384 0 0 1-10.551-7.522 19.383 19.383 0 0 1-15.872 8.259h-1.785a14.117 14.117 0 0 1 28.208-.737" transform="translate(-680.78 -306.388)" style="fill:#514d4b"/>
            </g>
            <g id="그룹_3392" data-name="그룹 3392" transform="translate(16.367)">
                <path id="패스_5085" data-name="패스 5085" class="cls-3" d="M682.3 320.871h-1.786a.737.737 0 0 1-.738-.743 14.855 14.855 0 0 1 29.683-.775.737.737 0 0 1-.938.753 20.179 20.179 0 0 1-10.35-6.992 20.181 20.181 0 0 1-15.871 7.757zm-1.022-1.476h1.022a18.71 18.71 0 0 0 15.269-7.945.738.738 0 0 1 .6-.314.74.74 0 0 1 .6.314 18.727 18.727 0 0 0 9.1 6.9 13.381 13.381 0 0 0-26.6 1.042z" transform="translate(-679.779 -305.388)"/>
            </g>
            <g id="그룹_3393" data-name="그룹 3393" transform="translate(12.341 63.254)">
                <path id="선_5" data-name="선 5" class="cls-10" d="M0 0v9.565"/>
            </g>
            <g id="그룹_3394" data-name="그룹 3394" transform="translate(11.603 62.516)">
                <path id="패스_5086" data-name="패스 5086" class="cls-3" d="M674.063 412.935a.738.738 0 0 1-.738-.738v-21.376a.738.738 0 1 1 1.476 0V412.2a.738.738 0 0 1-.738.735z" transform="translate(-673.325 -390.083)"/>
            </g>
            <g id="그룹_3395" data-name="그룹 3395" transform="translate(50.112 63.254)">
                <path id="선_6" data-name="선 6" class="cls-10" d="M0 0v9.565"/>
            </g>
            <g id="그룹_3396" data-name="그룹 3396" transform="translate(49.373 62.516)">
                <path id="패스_5087" data-name="패스 5087" class="cls-3" d="M725.233 412.935a.738.738 0 0 1-.738-.738v-21.376a.738.738 0 0 1 1.476 0V412.2a.738.738 0 0 1-.738.735z" transform="translate(-724.495 -390.083)"/>
            </g>
            <g id="그룹_3397" data-name="그룹 3397" transform="translate(27.227 51.744)">
                <path id="패스_5088" data-name="패스 5088" class="cls-11" d="m702.491 379.488-4 5.526-4-5.526 4-4z" transform="translate(-694.492 -375.488)"/>
            </g>
            <g id="그룹_3398" data-name="그룹 3398" transform="translate(26.488 51.006)">
                <path id="패스_5089" data-name="패스 5089" class="cls-3" d="M698.229 385.49a.736.736 0 0 1-.6-.306l-4-5.526a.738.738 0 0 1 .075-.954l4-4a.737.737 0 0 1 1.044 0l4 4a.737.737 0 0 1 .076.954l-4 5.526a.739.739 0 0 1-.595.306zm-3.029-6.19 3.033 4.19 3.034-4.19-3.034-3.032z" transform="translate(-693.492 -374.489)"/>
            </g>
            <g id="그룹_3399" data-name="그룹 3399" transform="translate(18.611 43.784)">
                <path id="패스_5090" data-name="패스 5090" class="cls-2" d="m690.281 378.128-7.462-9.9 2.963-3.521h4.194v3.53l5.463 4.6z" transform="translate(-682.819 -364.704)"/>
            </g>
            <g id="그룹_3400" data-name="그룹 3400" transform="translate(17.873 43.046)">
                <path id="패스_5091" data-name="패스 5091" class="cls-3" d="M690.02 378.6h-.047a.737.737 0 0 1-.543-.292l-7.462-9.9a.736.736 0 0 1 .025-.919l2.962-3.521a.738.738 0 0 1 .565-.263h4.195a.738.738 0 0 1 .738.738v3.186l5.2 4.375a.739.739 0 0 1 .054 1.08l-5.157 5.3a.741.741 0 0 1-.53.216zm-6.52-10.612 6.589 8.747 4-4.112-4.855-4.085a.74.74 0 0 1-.263-.565v-2.792h-3.113z" transform="translate(-681.819 -363.705)"/>
            </g>
            <g id="그룹_3401" data-name="그룹 3401" transform="translate(31.23 43.784)">
                <path id="패스_5092" data-name="패스 5092" class="cls-2" d="m705.074 378.128 7.462-9.9-2.963-3.521h-4.194v3.53l-5.463 4.6z" transform="translate(-699.916 -364.704)"/>
            </g>
            <g id="그룹_3402" data-name="그룹 3402" transform="translate(30.492 43.046)">
                <path id="패스_5093" data-name="패스 5093" class="cls-3" d="M704.811 378.6a.739.739 0 0 1-.529-.223l-5.158-5.3a.739.739 0 0 1 .054-1.08l5.2-4.375v-3.186a.738.738 0 0 1 .738-.738h4.195a.737.737 0 0 1 .565.263l2.962 3.521a.737.737 0 0 1 .026.919l-7.463 9.9a.737.737 0 0 1-.543.292zm-4.075-5.982 4 4.112 6.589-8.747-2.363-2.807h-3.113v2.792a.738.738 0 0 1-.263.565z" transform="translate(-698.916 -363.705)"/>
            </g>
            <g id="그룹_3403" data-name="그룹 3403" transform="translate(27.259 58.335)">
                <path id="패스_5094" data-name="패스 5094" class="cls-11" d="m694.535 409.975 1.983-25.556h3.969l1.983 25.556" transform="translate(-694.535 -384.419)"/>
            </g>
            <g id="그룹_3404" data-name="그룹 3404" transform="translate(26.52 57.597)">
                <path id="패스_5095" data-name="패스 5095" class="cls-3" d="M702.208 410.451a.739.739 0 0 1-.731-.638l-1.9-24.917H696.9l-1.9 24.916a.738.738 0 1 1-1.463-.2l1.983-25.556a.739.739 0 0 1 .732-.638h3.969a.739.739 0 0 1 .731.638l1.983 25.556a.739.739 0 0 1-.631.832.788.788 0 0 1-.096.007z" transform="translate(-693.535 -383.419)"/>
            </g>
            <path id="패스_5096" data-name="패스 5096" class="cls-3" d="M.738 61.973A.738.738 0 0 1 0 61.235V.738a.738.738 0 1 1 1.476 0V61.39c0 .41-.33.583-.738.583z" transform="rotate(90 -10.809 73.084)"/>
        </g>
        <path id="사각형_1107" data-name="사각형 1107" class="cls-1" transform="translate(1083 766)" d="M0 0h70v87H0z"/>
    </g>
</svg>
