<svg xmlns="http://www.w3.org/2000/svg" width="152" height="101" viewBox="0 0 152 101">
    <defs>
        <linearGradient id="a" x1=".5" x2=".5" y2="1" gradientUnits="objectBoundingBox">
            <stop offset=".05" stop-color="#36b34a"/>
            <stop offset=".95" stop-color="#25a9e0"/>
        </linearGradient>
    </defs>
    <g data-name="그룹 3959">
        <g data-name="그룹 3957" transform="translate(-1080 -385)">
            <circle data-name="타원 8" cx="50.5" cy="50.5" r="50.5" transform="translate(1102 385)" style="fill:#25a9e0;opacity:.07"/>
            <g data-name="그룹 3295">
                <path data-name="합치기 11" d="M-3120-322.709v-63.381h79.156v63.381zm3.138-3.137h72.879v-57.105h-72.879zm8-7.176v-3.138h57.731v3.138zm0-7.657v-3.137h57.731v3.137zm21.2-6.95h-21.2v-31.209h24.339v31.209zm-16.441-12.718c-1.309 1.536-1.518 4.679-1.544 9.58h17.9c-.029-4.747-.25-8-1.6-9.571a8.192 8.192 0 0 0-4.186-2.223l-.352.255 1.184 4.956a1.567 1.567 0 0 1-.384 1.441l-2.569 2.727a1.577 1.577 0 0 1-1.144.493h-.05a1.572 1.572 0 0 1-1.159-.569l-2.311-2.8a1.568 1.568 0 0 1-.321-1.346l1.121-4.938-.3-.224a8.205 8.205 0 0 0-4.287 2.219zm6.7 2.885.688.832.77-.817-.751-3.138zm6.983-12.681a7.354 7.354 0 0 1-.641 5.056 10.282 10.282 0 0 1 3.4 1.985v-12.6h-18.062v12.537a10.345 10.345 0 0 1 3.326-1.9 7.1 7.1 0 0 1-.472-5.249 6.394 6.394 0 0 1 6.088-4.784 6.549 6.549 0 0 1 6.357 4.955zm-9.455.766c-.008.03-.76 2.569 1.188 3.8l.141.089a1.584 1.584 0 0 1 .3.176l.094.071 1.4.879 1.975-1.244c1.209-.761 1.642-2.084 1.283-3.932a3.489 3.489 0 0 0-3.281-2.419 3.39 3.39 0 0 0-3.103 2.58zm25.851 14.989v-3.138h22.894v3.138zm0-7.656v-3.138h22.894v3.138zm0-7.656v-3.138h22.894v3.138z" transform="translate(4250 780.709)" style="fill:url(#a)"/>
            </g>
        </g>
        <path data-name="사각형 1105" style="fill:none" d="M0 0h152v101H0z"/>
    </g>
</svg>
