<svg xmlns="http://www.w3.org/2000/svg" width="26" height="16" viewBox="0 0 26 16">
    <g data-name="그룹 6169">
        <path data-name="패스 15912" d="M702.357 36.217a1.084 1.084 0 1 1 1.084-1.084 1.084 1.084 0 0 1-1.084 1.084m-11.934 0a1.084 1.084 0 1 1 1.084-1.084 1.084 1.084 0 0 1-1.084 1.084m12.318-6.5 2.168-3.737a.447.447 0 0 0-.779-.44l-2.19 3.782a13.23 13.23 0 0 0-5.544-1.2 13.453 13.453 0 0 0-5.555 1.185l-2.2-3.782a.447.447 0 0 0-.779.44l2.156 3.737a12.77 12.77 0 0 0-6.618 10.207h25.934a12.719 12.719 0 0 0-6.594-10.2" transform="translate(-683.4 -24.297)" style="fill:#fff"/>
        <path data-name="사각형 2237" style="fill:none" d="M0 0h26v16H0z"/>
    </g>
</svg>
