<svg xmlns="http://www.w3.org/2000/svg" xmlns:xlink="http://www.w3.org/1999/xlink" width="295" height="43" viewBox="0 0 295 43">
    <defs>
        <linearGradient id="0lkjxq6c1a" y1="1" x2="1" y2="1" gradientUnits="objectBoundingBox">
            <stop offset=".05" stop-color="#36b34a"/>
            <stop offset=".95" stop-color="#25a9e0"/>
        </linearGradient>
        <linearGradient id="79kxnos80b" x1=".5" x2=".5" y2="1" gradientUnits="objectBoundingBox">
            <stop offset="0" stop-color="#ffb300"/>
            <stop offset="1" stop-color="#ff9100"/>
        </linearGradient>
        <linearGradient id="d4j1lbtzyc" y1="1.001" x2=".999" y2="1.004" xlink:href="#0lkjxq6c1a"/>
    </defs>
    <g data-name="그룹 4360">
        <g data-name="그룹 4040">
            <g data-name="그룹 4030">
                <path data-name="합치기 34" d="M4.86 42A4.887 4.887 0 0 1 0 37.1V25.446a38.4 38.4 0 0 1 1.285-9.833l3.1-11.636A5.336 5.336 0 0 1 9.514 0h95.635A4.888 4.888 0 0 1 110 4.911V37.1a4.883 4.883 0 0 1-4.852 4.9z" transform="translate(.5 .5)" style="fill:url(#0lkjxq6c1a);stroke:transparent;stroke-miterlimit:10"/>
            </g>
            <text transform="translate(55.5 26.5)" style="fill:#fff;font-size:18px;font-family:NanumSquareB,NanumSquare"><tspan x="-32.76" y="0">충남버스</tspan></text>
        </g>
        <g data-name="그룹 4039">
            <g data-name="그룹 4030">
                <path data-name="합치기 34" d="M4.86 42A4.887 4.887 0 0 1 0 37.1V25.446a38.4 38.4 0 0 1 1.285-9.833l3.1-11.636A5.336 5.336 0 0 1 9.514 0h95.635A4.888 4.888 0 0 1 110 4.911V37.1a4.883 4.883 0 0 1-4.852 4.9z" transform="translate(184.5 .5)" style="fill:url(#79kxnos80b);stroke:transparent;stroke-miterlimit:10"/>
            </g>
            <text data-name="세종 버스" transform="translate(239.5 26.5)" style="fill:#fff;font-size:18px;font-family:NanumSquareB,NanumSquare"><tspan x="-35.01" y="0">세종 버스</tspan></text>
        </g>
        <g data-name="그룹 4038">
            <g data-name="그룹 4034">
                <g data-name="그룹 3942" transform="translate(-477.5 -293.5)">
                    <rect data-name="사각형 1081" width="11.997" height="4" rx="2" transform="rotate(45 -48.303 900.821)" style="opacity:.8;fill:url(#d4j1lbtzyc)"/>
                    <rect data-name="사각형 1082" width="12" height="4" rx="2" transform="rotate(135 252.182 283.991)" style="opacity:.8;fill:url(#d4j1lbtzyc)"/>
                </g>
                <path data-name="사각형 1083" transform="translate(139.5 4.5)" style="fill:none" d="M0 0h16v17H0z"/>
            </g>
            <g data-name="그룹 4036">
                <g data-name="그룹 3942" transform="rotate(180 386.25 168.25)">
                    <rect data-name="사각형 1081" width="11.997" height="4" rx="2" transform="rotate(45 -48.303 900.821)" style="opacity:.8;fill:url(#d4j1lbtzyc)"/>
                    <rect data-name="사각형 1082" width="12" height="4" rx="2" transform="rotate(135 252.182 283.991)" style="opacity:.8;fill:url(#d4j1lbtzyc)"/>
                </g>
                <path data-name="사각형 1083" transform="rotate(180 77.75 19.25)" style="fill:none" d="M0 0h16v17H0z"/>
            </g>
        </g>
    </g>
</svg>
