<svg xmlns="http://www.w3.org/2000/svg" width="23" height="28" viewBox="0 0 23 28">
    <g data-name="그룹 6168">
        <g data-name="그룹 5870">
            <g data-name="그룹 5869">
                <path data-name="패스 14720" d="M339.427 257.918a5.264 5.264 0 0 1 2.518-4.431 5.463 5.463 0 0 0-4.263-2.316c-1.818-.183-3.55 1.071-4.469 1.071s-2.345-1.041-3.85-1.011a5.712 5.712 0 0 0-4.829 2.919c-2.057 3.567-.529 8.853 1.481 11.745.979 1.416 2.146 3.006 3.679 2.949 1.48-.057 2.039-.954 3.826-.954s2.288.954 3.853.93c1.589-.033 2.6-1.449 3.568-2.865a12.919 12.919 0 0 0 1.617-3.318 5.142 5.142 0 0 1-3.131-4.719z" transform="translate(-323.557 -245.512)" style="fill:#fff"/>
                <path data-name="패스 14721" d="M394.59 214.671a5.133 5.133 0 0 0 1.219-3.736 5.242 5.242 0 0 0-3.445 1.772 4.9 4.9 0 0 0-1.244 3.625 4.344 4.344 0 0 0 3.47-1.661z" transform="translate(-381.66 -210.935)" style="fill:#fff"/>
            </g>
        </g>
        <path data-name="사각형 2236" style="fill:none" d="M0 0h23v28H0z"/>
    </g>
</svg>
