<svg xmlns="http://www.w3.org/2000/svg" width="160" height="26" viewBox="0 0 160 26">
  <g id="logo" transform="translate(-400 -51)">
    <g id="그룹_5228" data-name="그룹 5228" transform="translate(249.808 -226.51)">
      <g id="그룹_3984" data-name="그룹 3984" transform="translate(186.033 282.199)">
        <path id="패스_3474" data-name="패스 3474" d="M282.547,284.731a4.69,4.69,0,0,1,3.108,1.151,4.111,4.111,0,0,1,.936,1.234,3.37,3.37,0,0,1,.347,1.508,3.423,3.423,0,0,1-.347,1.517,4.063,4.063,0,0,1-.932,1.243,4.814,4.814,0,0,1-4.826.841,4.392,4.392,0,0,1-1.389-.841,3.929,3.929,0,0,1-.951-1.243,3.414,3.414,0,0,1-.347-1.517,3.363,3.363,0,0,1,.347-1.508,3.979,3.979,0,0,1,.951-1.234,4.421,4.421,0,0,1,1.389-.841A4.734,4.734,0,0,1,282.547,284.731Zm-.018,6.088a1.8,1.8,0,0,0,.786-.173,2.1,2.1,0,0,0,.638-.466,2.271,2.271,0,0,0,.439-.686,2.182,2.182,0,0,0,.164-.851,2.281,2.281,0,0,0-.6-1.554,2.128,2.128,0,0,0-.638-.466,1.863,1.863,0,0,0-1.572,0,2.088,2.088,0,0,0-1.069,1.161,2.361,2.361,0,0,0-.155.859,2.282,2.282,0,0,0,.155.851,2.122,2.122,0,0,0,.429.686,2.091,2.091,0,0,0,.638.466,1.8,1.8,0,0,0,.79.172Zm-1.883,8.025V296.5h7.662v-1.117h-7.662v-1.7h10.073v4.479h-7.662v.658a.636.636,0,0,0,.2.485.662.662,0,0,0,.475.192h7.183v1.664H282.97a2.322,2.322,0,0,1-2.322-2.319Zm7.662-5.906v-8.372h1.737a.669.669,0,0,1,.475.192.642.642,0,0,1,.2.485v2.285h2.394v1.737H290.72v3.674Z" transform="translate(-245.908 -284.566)" fill="#474747"/>
        <path id="패스_3475" data-name="패스 3475" d="M338.107,298.141h2.267v-6.306h2.431v6.306h1.352v-6.306h2.413v6.306h4.808v1.774H338.107Zm12.175-12.029v6.618a13.472,13.472,0,0,1-.092,1.728,9.622,9.622,0,0,1-.2,1.106,3.649,3.649,0,0,1-.275.75h-2.358a3.928,3.928,0,0,0,.238-.75q.092-.42.173-1.106a14.991,14.991,0,0,0,.082-1.728v-4.845h-8.573v-1.773Z" transform="translate(-273.967 -285.289)" fill="#474747"/>
        <path id="패스_3476" data-name="패스 3476" d="M377.428,286.576H368.2a3.373,3.373,0,0,0,.192.329,1.594,1.594,0,0,1,.192.512h8.628V289.1h-8.555v.164a.611.611,0,0,0,.192.448.654.654,0,0,0,.484.192h8.19v1.682h-4.3v1.171h6.215v1.682H364.5v-1.682h6.307v-1.171h-2.267a2.344,2.344,0,0,1-2.138-1.345,1.99,1.99,0,0,1-.183-.851v-2.614a3.4,3.4,0,0,0-.082-.786,5.82,5.82,0,0,0-.173-.6,3.389,3.389,0,0,0-.238-.512h11.7Zm-5.466,8.409a7.493,7.493,0,0,1,2.047.266,5.6,5.6,0,0,1,1.609.723,3.471,3.471,0,0,1,1.051,1.078,2.5,2.5,0,0,1,0,2.632,3.473,3.473,0,0,1-1.051,1.079,5.594,5.594,0,0,1-1.609.722,8.039,8.039,0,0,1-4.1,0,5.572,5.572,0,0,1-1.609-.722,3.466,3.466,0,0,1-1.051-1.079,2.5,2.5,0,0,1,0-2.632,3.459,3.459,0,0,1,1.051-1.078,5.588,5.588,0,0,1,1.609-.723A7.49,7.49,0,0,1,371.962,294.985Zm0,5.082a4.106,4.106,0,0,0,1.088-.137,3.445,3.445,0,0,0,.868-.356,1.958,1.958,0,0,0,.549-.549,1.225,1.225,0,0,0,.2-.676,1.2,1.2,0,0,0-.2-.658,1.973,1.973,0,0,0-.549-.549,3.465,3.465,0,0,0-.868-.356,4.15,4.15,0,0,0-1.088-.137,4.034,4.034,0,0,0-1.078.137,3.492,3.492,0,0,0-.859.356,1.882,1.882,0,0,0-.567.549,1.189,1.189,0,0,0-.2.658,1.217,1.217,0,0,0,.2.676,1.869,1.869,0,0,0,.567.549,3.47,3.47,0,0,0,.859.356A4.013,4.013,0,0,0,371.962,300.066Z" transform="translate(-286.319 -284.71)" fill="#474747"/>
        <path id="패스_3477" data-name="패스 3477" d="M402.211,285.9a1.784,1.784,0,0,0-.009.311,1.581,1.581,0,0,1-.009.293,14.684,14.684,0,0,1-.777,3.948,11.267,11.267,0,0,1-1.654,3.108,9.88,9.88,0,0,1-2.422,2.258,10.042,10.042,0,0,1-2.989,1.325l-.384.073V295.46l.128-.037a8.768,8.768,0,0,0,2.724-1.637,7.882,7.882,0,0,0,1.737-2.239h-3.949v-1.773h4.625a11.372,11.372,0,0,0,.347-2.394h-4.991v-1.773h7.623Zm6.745,4.058v1.773h-2.394v8.938H404.13V284.565h1.756a.667.667,0,0,1,.475.192.644.644,0,0,1,.2.485v4.717Z" transform="translate(-300.106 -284.565)" fill="#474747"/>
        <path id="패스_3478" data-name="패스 3478" d="M319.579,289.771a.655.655,0,0,1-.485-.192.612.612,0,0,1-.192-.448l-.073-.54a1.594,1.594,0,0,0-.192-.512,3.2,3.2,0,0,1-.192-.329h3.791v-1.7h-6.258a3.439,3.439,0,0,1,.238.512,5.822,5.822,0,0,1,.173.6,3.459,3.459,0,0,1,.082.786v1.308a2.048,2.048,0,0,0,.065.512h-1.963a.654.654,0,0,1-.484-.192.611.611,0,0,1-.192-.448l-.073-.54a1.594,1.594,0,0,0-.192-.512,3.375,3.375,0,0,1-.192-.329h2.05v-1.7h-4.518a3.437,3.437,0,0,1,.238.512,5.825,5.825,0,0,1,.173.6,3.457,3.457,0,0,1,.082.786v1.308a1.984,1.984,0,0,0,.183.851,2.342,2.342,0,0,0,2.138,1.344h8.54v-1.681Z" transform="translate(-261.269 -285.258)" fill="#474747"/>
        <rect id="사각형_73" data-name="사각형 73" width="14.935" height="1.682" transform="translate(48.478 6.93)" fill="#474747"/>
        <path id="패스_3479" data-name="패스 3479" d="M313.209,306.811V304.47h7.662v-1.117h-7.662v-1.7h10.073v4.479H315.62v.658a.638.638,0,0,0,.2.485.664.664,0,0,0,.475.192h7.183v1.664h-7.95a2.315,2.315,0,0,1-2.32-2.317Z" transform="translate(-262.316 -292.56)" fill="#474747"/>
        <path id="패스_3480" data-name="패스 3480" d="M437.341,287.873h-8.632a2.5,2.5,0,0,1,.126.251,3.086,3.086,0,0,1,.143.43,6.5,6.5,0,0,1,.126.692,7.4,7.4,0,0,1,.053.958v2.7a.643.643,0,0,0,.624.662h7.561v1.737h-8.292a2.273,2.273,0,0,1-2.275-2.275v-4.567a7.416,7.416,0,0,0-.072-1.128,4.727,4.727,0,0,0-.16-.716,1.678,1.678,0,0,0-.233-.484h11.032Z" transform="translate(-315.242 -285.301)" fill="#474747"/>
        <rect id="사각형_74" data-name="사각형 74" width="14.167" height="1.726" transform="translate(109.992 12.874)" fill="#474747"/>
        <path id="패스_3472" data-name="패스 3472" d="M223.736,293.344h-6.181V291.7h14.637v1.649H226.1v.949a5.527,5.527,0,0,1,1.424.5,4.886,4.886,0,0,1,1.138.806,3.934,3.934,0,0,1,.735,1.057,2.846,2.846,0,0,1,.269,1.218,2.953,2.953,0,0,1-.376,1.451,3.845,3.845,0,0,1-1.021,1.183,5.387,5.387,0,0,1-1.543.8,6.046,6.046,0,0,1-3.735,0,5.124,5.124,0,0,1-1.514-.8,3.744,3.744,0,0,1-1.039-1.183,2.953,2.953,0,0,1-.376-1.451,2.872,2.872,0,0,1,.278-1.236,3.64,3.64,0,0,1,.779-1.075,4.752,4.752,0,0,1,1.156-.807,5.341,5.341,0,0,1,1.46-.484Zm5.858-4.264a1.861,1.861,0,0,0,.376.045q.232.009.448.027l.5.036v1.756q-.394-.017-.717-.036c-.191-.012-.376-.023-.555-.036a1.934,1.934,0,0,1-.394-.053q-.377-.07-.914-.152a7.13,7.13,0,0,1-1.147-.278,6.256,6.256,0,0,1-1.209-.5,4.26,4.26,0,0,1-1.1-.86,3.8,3.8,0,0,1-1.093.851,6.949,6.949,0,0,1-1.218.493,10.477,10.477,0,0,1-1.174.277l-.958.17a1.969,1.969,0,0,1-.394.053l-.555.036q-.322.018-.717.036v-1.756l.5-.036c.142-.012.288-.021.439-.027a2.18,2.18,0,0,0,.385-.045c.119-.012.332-.036.638-.072a6.555,6.555,0,0,0,.976-.2,3.853,3.853,0,0,0,1.011-.448,1.922,1.922,0,0,0,.745-.842h-4.445v-1.738h4.622a5.853,5.853,0,0,0-.117-.574,2.058,2.058,0,0,0-.135-.376,1.1,1.1,0,0,0-.143-.269h2.472a.806.806,0,0,1,.16.269,2.593,2.593,0,0,1,.143.376,4.238,4.238,0,0,1,.125.574h4.479v1.738H226.3a2.11,2.11,0,0,0,.788.858,4,4,0,0,0,1.021.448,4.2,4.2,0,0,0,.923.2q.423.039.564.056Zm-4.73,10.875a2.776,2.776,0,0,0,.95-.16,2.554,2.554,0,0,0,.788-.447,2.071,2.071,0,0,0,.528-.663,1.823,1.823,0,0,0,0-1.612,2.082,2.082,0,0,0-.528-.663,2.564,2.564,0,0,0-.788-.447,2.9,2.9,0,0,0-1.908,0,2.592,2.592,0,0,0-.779.447,2.082,2.082,0,0,0-.528.663,1.819,1.819,0,0,0,0,1.612,2.057,2.057,0,0,0,.528.663,2.57,2.57,0,0,0,.779.447,2.749,2.749,0,0,0,.958.16Z" transform="translate(-217.555 -284.565)" fill="#474747"/>
        <path id="패스_3473" data-name="패스 3473" d="M257.934,292.752a4.457,4.457,0,0,1-1.308.322,13.689,13.689,0,0,1-1.7.106h-4.138a2.274,2.274,0,0,1-2.277-2.276v-2.811a6.732,6.732,0,0,0-.08-1.138,5.4,5.4,0,0,0-.17-.726,1.675,1.675,0,0,0-.233-.484h2.312a1.643,1.643,0,0,1,.266.484,6.205,6.205,0,0,1,.179.726,6.087,6.087,0,0,1,.089,1.138v2.687a.626.626,0,0,0,.2.475.65.65,0,0,0,.466.188h4.246a6.416,6.416,0,0,0,1.46-.16,4.616,4.616,0,0,0,.692-.213v-5.858h1.7a.631.631,0,0,1,.475.2.675.675,0,0,1,.188.484V288.6h2.347v1.738H260.3v3.386h-2.365Zm-7.289,6.45v-4.856H260.3v7.114h-7.384a2.215,2.215,0,0,1-.9-.179,2.265,2.265,0,0,1-1.2-1.2,2.164,2.164,0,0,1-.179-.878Zm2.365-3.117v2.974a.656.656,0,0,0,.2.484.636.636,0,0,0,.466.2h4.264v-3.655Z" transform="translate(-231.813 -284.868)" fill="#474747"/>
      </g>
      <g id="그룹_3986" data-name="그룹 3986" transform="translate(150.192 279.51)">
        <path id="패스_3481" data-name="패스 3481" d="M174.141,296.333c-2.063-1.948-5.066.8-3.338,3.376.883,1.314,3.157,2.169,6.418,2,.466-.024.618-.128.155-.338C174.52,300.073,175.662,297.77,174.141,296.333Z" transform="translate(-159.596 -287.074)" fill="#66b821" fill-rule="evenodd"/>
        <path id="패스_3482" data-name="패스 3482" d="M158.071,307.446c.213-.4.27-.5-.278-.25-3.095,1.437-3.7-.882-5.757-.574a2.176,2.176,0,0,0-1.819,2.474c.237,1.437,1.9,1.984,3.231,1.848C156.182,310.667,157.719,308.113,158.071,307.446Z" transform="translate(-150.192 -292.184)" fill="#ff8001" fill-rule="evenodd"/>
        <path id="패스_3483" data-name="패스 3483" d="M155.951,301.5c.11.092.252.271-.146.213-4.948-.745-5.847-3.671-4.561-5.112a2.045,2.045,0,0,1,2.841-.093C155.406,297.96,153.983,299.833,155.951,301.5Z" transform="translate(-150.438 -287.215)" fill="#3787bc" fill-rule="evenodd"/>
        <path id="패스_3484" data-name="패스 3484" d="M188.815,284.269c.483.018.606.115.118.31a3.4,3.4,0,0,0-2.383,3.288c-.067,2.823-4.15,2.075-3.692-.876C183.378,283.652,188.255,284.248,188.815,284.269Z" transform="translate(-165.461 -281.712)" fill="#ff8001" fill-rule="evenodd"/>
        <path id="패스_3485" data-name="패스 3485" d="M166.839,307.1a2.083,2.083,0,0,0,4.074-.777c-.251-2.075-2.734-1.41-2.734-3.7,0-.278-.023-.507-.3-.081C167.1,303.732,166.422,305.854,166.839,307.1Z" transform="translate(-157.922 -290.178)" fill="#af46a0" fill-rule="evenodd"/>
        <path id="패스_3486" data-name="패스 3486" d="M190.163,308.382c-2.171,1.535-2.965-.319-4.527-.409-1.8-.1-2.321,2.82-.007,3.36a4.587,4.587,0,0,0,4.809-2.9C190.5,308.3,190.436,308.138,190.163,308.382Z" transform="translate(-166.051 -292.828)" fill="#66b821" fill-rule="evenodd"/>
        <path id="패스_3487" data-name="패스 3487" d="M191.65,300.525c.486-2.466-1.561-4.77-1.756-5.014-.053-.064-.468-.567-.287.172.541,2.206-.6,2.832-.945,4.4C188.163,302.349,191.225,302.675,191.65,300.525Z" transform="translate(-168.168 -286.891)" fill="#ff8001" fill-rule="evenodd"/>
        <path id="패스_3488" data-name="패스 3488" d="M165.6,295.71a9.544,9.544,0,0,0-4.927,1.622,2.109,2.109,0,0,0-.508,2.939,2.038,2.038,0,0,0,3.118.261,2.107,2.107,0,0,0,.193-.214c1.133-1.394.024-3.1,2.244-4.382C166.044,295.745,165.84,295.686,165.6,295.71Z" transform="translate(-154.678 -287.088)" fill="#ff4000"/>
        <path id="패스_3489" data-name="패스 3489" d="M199.7,296.187a2.555,2.555,0,0,0-1.144,1.051c-.288.476-.4,1.033-.695,1.505a3.967,3.967,0,0,1-.958,1.085c-.213.16-.329.38.076.3a4.364,4.364,0,0,1,1.338-.074,11.941,11.941,0,0,1,1.631.4,1.9,1.9,0,0,0,2.018-.332,2.655,2.655,0,0,0-.093-3.438A1.986,1.986,0,0,0,199.7,296.187Z" transform="translate(-171.961 -287.251)" fill="#66b821" fill-rule="evenodd"/>
        <path id="패스_3490" data-name="패스 3490" d="M201.294,305.182c-1.744-.272-2.6,1.053-5.166-.714-.228-.156-.419-.287-.251.232.276.844,1.5,4.235,3.872,4.837C203.221,310.419,204.141,305.707,201.294,305.182Z" transform="translate(-171.54 -291.124)" fill="#3787bc" fill-rule="evenodd"/>
        <path id="패스_3491" data-name="패스 3491" d="M175.072,281.027c-.376,1.929,1.117,2.842.748,5.679-.029.226.175.22.23.094,1.132-2.6,2.82-2.5,3.463-4.508C180.469,279.293,175.57,278.484,175.072,281.027Z" transform="translate(-161.806 -279.51)" fill="#3787bc" fill-rule="evenodd"/>
        <path id="패스_3492" data-name="패스 3492" d="M159.338,291.871c2.3.18,2.42-1.514,6.508-1.285.333.019.292-.2.078-.266-3.664-1.106-4.288-3.453-6.193-3.525C156.618,286.68,156.177,291.624,159.338,291.871Z" transform="translate(-153.458 -282.918)" fill="#af46a0" fill-rule="evenodd"/>
        <path id="패스_3493" data-name="패스 3493" d="M166.095,284.4c1.409,1.812,2.505.616,4.122,2.361.236.254.413.13.23-.168-1.127-1.825.14-3.476-.807-4.682C167.857,279.636,164.436,282.268,166.095,284.4Z" transform="translate(-157.427 -280.223)" fill="#ff4000" fill-rule="evenodd"/>
        <path id="패스_3494" data-name="패스 3494" d="M191.269,288.672c0,1.922,2.112,2.811,2.247,6.395.009.237.227.244.273.01.7-3.569,2.655-4.259,2.824-6.311C196.874,285.6,191.269,285.022,191.269,288.672Z" transform="translate(-169.414 -282.62)" fill="#ff4000" fill-rule="evenodd"/>
        <path id="패스_3495" data-name="패스 3495" d="M183.887,297.407a2.176,2.176,0,0,0,.372-3.014c-1.424-1.632-2.953-.007-4.409-2.733-.239-.449-.395-.351-.307.133.3,1.665-.247,3.318.725,4.8A2.476,2.476,0,0,0,183.887,297.407Z" transform="translate(-163.915 -285.06)" fill="#af46a0" fill-rule="evenodd"/>
        <path id="패스_3496" data-name="패스 3496" d="M177.787,308.539a1.883,1.883,0,0,0-1.883,1.883v5.061h3.765v-5.061A1.883,1.883,0,0,0,177.787,308.539Z" transform="translate(-162.224 -293.094)" fill="#8c8c70" fill-rule="evenodd"/>
      </g>
    </g>
    <rect id="사각형_2235" data-name="사각형 2235" width="160" height="26" transform="translate(400 51)" fill="none"/>
  </g>
</svg>
