<svg xmlns="http://www.w3.org/2000/svg" width="34" height="34" viewBox="0 0 34 34">
    <defs>
        <linearGradient id="linear-gradient" y1="1.001" x2=".999" y2="1.004" gradientUnits="objectBoundingBox">
            <stop offset=".05" stop-color="#36b34a"/>
            <stop offset=".95" stop-color="#25a9e0"/>
        </linearGradient>
        <style>
            .cls-1{opacity:.8;fill:url(#linear-gradient)}
        </style>
    </defs>
    <g id="그룹_3964" data-name="그룹 3964" transform="translate(-626 -309)">
        <g id="그룹_3942" data-name="그룹 3942" transform="translate(13 11)">
            <rect id="사각형_1081" data-name="사각형 1081" class="cls-1" width="24" height="4" rx="2" transform="rotate(45 -48.303 900.821)"/>
            <rect id="사각형_1082" data-name="사각형 1082" class="cls-1" width="24" height="4" rx="2" transform="rotate(135 254.67 289.986)"/>
        </g>
        <path id="사각형_1083" data-name="사각형 1083" transform="translate(626 309)" style="fill:none" d="M0 0h34v34H0z"/>
    </g>
</svg>
